[
  {
    "title":"économie",
    "text":"Préserver un service public dont les bénéfices augmentent depuis 5 ans : ADP, c’est 4,5 milliards d’€ de chiffre d’affaires, 610 millions d’€ de bénéfices en 2018 dont 185 millions d’€ pour l’Etat."
  },
  {
    "title":"économie",
    "text":"Protéger les salariés : depuis la 1ère phase de privatisation d’ADP en 2015, 1.600 emplois ont été supprimés."
  },
  {
    "title":"écologie",
    "text":"Conserver un levier d’action pour engager la transition écologique dans le secteur de l’aviation civile. Par ailleurs, ADP est le 1er propriétaire foncier d’Ile-de-France. Le privatiser, c’est laisser des actionnaires privés décider de son usage."
  },
  {
    "title":"souveraineté",
    "text":"Défendre les pouvoirs de l’Etat sur nos frontières : avec + de 100 millions de voyageurs par an, ADP constitue la 1ère frontière de France."
  },
  {
    "title":"démocratie",
    "text":"Rejoindre un combat démocratique inédit : pour la 1ère fois depuis sa création, les Français.e.s ont l’occasion de participer au Référendum d’initiative partagée."
  },
  {
    "title":"démocratie",
    "text":"Contactez vos députés pour aider à signer le RIP sur <a href=\"https://www.nosdeputes.fr/\">nosdeputes.fr</a>"
  }
]
